{
	"products":{
		"6455782522486784": {
			"heading":"Solar Water Heater",
			"description_long": "Hot water at low running costs without any need for electricity saving huge energy bills. - long"
		},
		"5048407638933504": {
			"heading":"Multi Fuel Water Heater",
			"description_long": "Hot water at low running costs without any need for electricity saving huge energy bills. - long"
		}
	}
}