{
	"products": 
	[
		{"heading":"Solar Water Heater"}, {"heading":"Multi Fuel Water Heater"}, {"heading":"Diesel or Gas Water Heater"}, {"heading":"Electric Water Heater"}, 
		{"heading":"Water Softner Plant"}, {"heading":"Pressure Sand Filter"}, {"heading":"Activated Carbon Filter"}, {"heading":"Iron Removal Filter"},
		{"heading": "Reverse Osmosis System"}, {"heading": "CH+PC"}, {"heading": "CH+PT"}, {"heading":"UPA 15-90 N"}, {"heading": "CM, CME"}, {"heading": "CR, CRI, CRN"},
		{"heading": "SP A, SP, SP-G"}, {"heading": "Unilift CC, KP, AP12"}, {"heading": "SEG"}
	]
}