{
	"product": {
		"name": "Solar Water Heater",
		"image_urls": ["images/sanitary_hot_water/1.jpg", "images/sanitary_hot_water/2.jpg", "images/sanitary_hot_water/3.jpg", "images/sanitary_hot_water/4.jpg"],
		"attributes": [
			{
				"name": "Features",
				"description": "<ul><p><li><h4>This is Feature 1</h4></li></p><p><li>This is Feature 2</li></p><p><li>This is Feature 3</li></p><p><li>This is Feature 4</li></p><p><li>This is Feature 5</li></p></ul>"
			},
			{
				"name": "Specifications",
				"description": "<h1>This is Specifications tab</h1>"
			},
			{
				"name": "Design",
				"description": "This is Design tab"
			},
			{
				"name": "Customer Reviews",
				"description": "This is Customer Reviews tab"
			}
		]
	}
}