TABLE bis_product
bis_product.categories,bis_product.name,bis_product.description_short,bis_product.description_long,bis_product.unit_price,bis_product.on_sale,bis_product.rating,bis_product.image_urls,bis_product.in_stock,bis_product.tax_rate,bis_product.volume,bis_product.weight,bis_product.variant_products,bis_product.product_attributes,bis_product.specifications
|pumps|,Solar Water Heater1,description_short,Hot water at low running costs without any need for electricity saving huge energy bills. - long,10000.0,True,3.0,|images/sanitary_hot_water/1.jpg|images/sanitary_hot_water/2.jpg|images/sanitary_hot_water/3.jpg|images/sanitary_hot_water/4.jpg|,5000,2500.0,||,25.0,||,"{u'attributes': [{u'name': u'Features', u'description': u'<ul><p><li><h4>This is Feature 1</h4></li></p><p><li>This is Feature 2</li></p><p><li>This is Feature 3</li></p><p><li>This is Feature 4</li></p><p><li>This is Feature 5</li></p></ul>', u'isSelected': u'active'}, {u'name': u'Specifications', u'description': u'<h1>This is Specifications tab</h1>', u'isSelected': u''}, {u'name': u'Design', u'description': u'This is Design tab', u'isSelected': u''}, {u'name': u'Customer Reviews', u'description': u'This is Customer Reviews tab', u'isSelected': u''}]}",specifications
|pumps|,Solar Water Heater2,description_short2,Hot water at low running costs without any need for electricity saving huge energy bills. - long,10000.0,True,3.0,|images/sanitary_hot_water/1.jpg|images/sanitary_hot_water/2.jpg|images/sanitary_hot_water/3.jpg|images/sanitary_hot_water/4.jpg|,5000,2500.0,||,25.0,||,"{u'attributes': [{u'name': u'Features', u'description': u'<ul><p><li><h4>This is Feature 1</h4></li></p><p><li>This is Feature 2</li></p><p><li>This is Feature 3</li></p><p><li>This is Feature 4</li></p><p><li>This is Feature 5</li></p></ul>', u'isSelected': u'active'}, {u'name': u'Specifications', u'description': u'<h1>This is Specifications tab</h1>', u'isSelected': u''}, {u'name': u'Design', u'description': u'This is Design tab', u'isSelected': u''}, {u'name': u'Customer Reviews', u'description': u'This is Customer Reviews tab', u'isSelected': u''}]}",specifications
